Title,ip,query_len,reformulation
berlin,187.97.10.4,1,new
desert island,187.97.10.4,2,new
desert island survive,187.97.10.4,3,specialisation
desert island survive,187.97.10.4,3,specialisation
handbook desert island survive,187.97.10.4,4,specialisation
python,187.97.10.4,1,new
music,187.97.10.4,1,new
musicology,187.97.10.4,1,specialisation
dahlhaus,187.97.10.4,1,new
douglas adams,187.97.10.4,2,new
berlin,26.151.88.162,1,new
survive island,26.151.88.162,2,new
surviver guide,26.151.88.162,2,new
surviver guide desert,26.151.88.162,3,specialisation
logic,26.151.88.162,1,new
fiction,26.151.88.162,1,new
fantasy fink,26.151.88.162,2,new
torsten fink,26.151.88.162,2,new
acazia,26.151.88.162,1,new
fiction,26.151.88.162,1,new
fantasy fink,26.151.88.162,2,new
berlin,133.7.146.77,1,new
cecilia ahern,133.7.146.77,2,new
london,14.111.133.5,1,new
desert island,14.111.133.5,2,new
desert island survive,14.111.133.5,3,specialisation
survive,14.111.133.5,1,generalisation
survive desert,14.111.133.5,2,specialisation
teching,14.111.133.5,1,new
computer,14.111.133.5,1,new
computer gaming,14.111.133.5,2,specialisation
tesdt,14.111.133.5,1,new
test,14.111.133.5,1,new
berlin,201.131.107.45,1,new
surviving on a desert island,201.131.107.45,5,new
medicine,201.131.107.45,1,new
knitting,201.131.107.45,1,new
jokes,201.131.107.45,1,new
hobbit,201.131.107.45,1,new
berlin ,65.96.38.6,1,new
versailles,65.96.38.6,1,new
tischlerei ,65.96.38.6,1,new
soccer ,65.96.38.6,1,new
soccer children,65.96.38.6,2,specialisation
music,65.96.38.6,1,new
berlin,47.157.152.124,1,new
berlin,114.217.88.226,1,new
survive island,114.217.88.226,2,new
surviving island,114.217.88.226,2,new
desert island survive,114.217.88.226,3,new
how to,114.217.88.226,2,new
berlin,114.217.88.226,1,new
berlin,175.249.158.85,1,new
surviving,175.249.158.85,1,new
surviving island,175.249.158.85,2,specialisation
cook,175.249.158.85,1,new
dance,175.249.158.85,1,new
berlin,124.56.184.244,1,new
john lennon,124.56.184.244,2,new
popular music,124.56.184.244,2,new
buddhism,124.56.184.244,1,new
survival,124.56.184.244,1,new
teachings of buddha,124.56.184.244,3,new
lord of the rings,124.56.184.244,4,new
tolkien lord of the rings,124.56.184.244,5,specialisation
gustav mahler,124.56.184.244,2,new
thomas mann faustus,124.56.184.244,3,new
thomas mann doktor faustus,124.56.184.244,4,new
berlin,63.160.91.148,1,new
about surviving on a desert island,63.160.91.148,6,new
animals and plants,63.160.91.148,3,new
animals,63.160.91.148,1,generalisation
animals lexikon,63.160.91.148,2,specialisation
animals lexicon,63.160.91.148,2,new
animals lexicon bear,63.160.91.148,3,specialisation
animals lexicon,63.160.91.148,2,generalisation
christmas,63.160.91.148,1,new
fantasy,63.160.91.148,1,new
dragon,63.160.91.148,1,new
berlin,219.209.205.79,1,new
survival island,219.209.205.79,2,new
survival,219.209.205.79,1,generalisation
survival guide island,219.209.205.79,3,specialisation
norwegian learning guide,219.209.205.79,3,new
karate,219.209.205.79,1,new
hitchhikers guide to the galaxy,219.209.205.79,5,new
desert island,90.18.16.56,2,new
surviving desert island,90.18.16.56,3,specialisation
egyptian ,90.18.16.56,1,new
london,184.230.10.19,1,new
desert island,184.230.10.19,2,new
surviving guide,184.230.10.19,2,new
surviving guide desert island,184.230.10.19,4,specialisation
surviving guide desert ,184.230.10.19,3,generalisation
surviving guide desert island,184.230.10.19,4,specialisation
surviving desert island,184.230.10.19,3,new
reading,184.230.10.19,1,new
books,184.230.10.19,1,new
books reading,184.230.10.19,2,specialisation
tolkien,32.188.23.150,1,new
surviving desert,32.188.23.150,2,new
learn fishing,32.188.23.150,2,new
learn drawing,32.188.23.150,2,new
guitar ,32.188.23.150,1,new
song of ice and fire,32.188.23.150,5,new
song of ice and fire game,32.188.23.150,6,specialisation
"creator:""george r.r. martin""",32.188.23.150,3,new
berlin,32.188.23.150,1,new
london,54.24.204.117,1,new
london,54.24.204.117,1,specialisation
surviving on a desert island,54.24.204.117,5,new
surviving on a  island,54.24.204.117,4,new
surviving island,54.24.204.117,2,new
surviving ,54.24.204.117,1,generalisation
learn cooking,54.24.204.117,2,new
cooking campfire,54.24.204.117,2,new
chekhov,54.24.204.117,1,new
berlin,231.122.148.60,1,new
how to make fire,231.122.148.60,4,new
how to read the sky,231.122.148.60,5,new
surviving on a desert island,231.122.148.60,5,new
survival guide,231.122.148.60,2,new
sas survival guide,231.122.148.60,3,specialisation
"mcluhan, marshall",231.122.148.60,2,new
noam chomsky,231.122.148.60,2,new
stanislaw lem,231.122.148.60,2,new
moomins,231.122.148.60,1,new
berlin,24.88.179.249,1,new
island,24.88.179.249,1,new
survival,24.88.179.249,1,new
hobbies,24.88.179.249,1,new
hobby,24.88.179.249,1,new
*,24.88.179.249,1,new
berlin,254.133.124.137,1,new
bibliothek,254.133.124.137,1,new
surviving desert,254.133.124.137,2,new
hut building,254.133.124.137,2,new
sign language,254.133.124.137,2,new
rocmusik,254.133.124.137,1,new
rockmusik,254.133.124.137,1,new
rock music,254.133.124.137,2,new
recommended,254.133.124.137,1,new
berlin,254.133.124.137,1,new
cat,254.133.124.137,1,new
hitchhikers guide to galaxy,254.133.124.137,4,new
curious incident with the dog in the nighttime,254.133.124.137,8,new
mark haddon,254.133.124.137,2,new
london,154.253.196.253,1,new
deserts,154.253.196.253,1,new
surviving deserts,154.253.196.253,2,specialisation
uyghur,154.253.196.253,1,new
buddhism,154.253.196.253,1,new
syria,154.253.196.253,1,new
surving desert,154.253.196.253,2,new
surviving desert,154.253.196.253,2,new
uyghur,154.253.196.253,1,new
buddhism,154.253.196.253,1,new
bollywood,154.253.196.253,1,new
london,212.42.192.41,1,new
london,212.42.192.41,1,specialisation
harry potter,212.42.192.41,2,new
island,212.42.192.41,1,new
simpsons,212.42.192.41,1,new
berlin,232.126.241.181,1,new
surviving desert island,232.126.241.181,3,new
survival desert island,232.126.241.181,3,new
coconut,232.126.241.181,1,new
polish,232.126.241.181,1,new
happiness,232.126.241.181,1,new
berlin,16.72.6.119,1,new
rüdiger nehberg,16.72.6.119,2,new
survival,16.72.6.119,1,new
survival island,16.72.6.119,2,specialisation
sir vival,16.72.6.119,2,new
survival island,16.72.6.119,2,new
stitching,16.72.6.119,1,new
art painting,16.72.6.119,2,new
art,16.72.6.119,1,generalisation
funny book,16.72.6.119,2,new
blabla,16.72.6.119,1,new
bike,16.72.6.119,1,new
bike berlin,16.72.6.119,2,specialisation
bike tour berlin,16.72.6.119,3,new
berlin,72.180.20.57,1,new
herbert dune,72.180.20.57,2,new
survival wilderness,72.180.20.57,2,new
learning fishing,72.180.20.57,2,new
klassische filme,72.180.20.57,2,new
coins of the world,72.180.20.57,4,new
coins of the world 2014,72.180.20.57,5,specialisation
loriot,72.180.20.57,1,new
black jokes,72.180.20.57,2,new
london,4.224.53.59,1,new
london,4.224.53.59,1,specialisation
desert,4.224.53.59,1,new
desert survive,4.224.53.59,2,specialisation
berlin,144.44.111.75,1,new
london,144.44.111.75,1,new
london travel,144.44.111.75,2,specialisation
scotlandtravel,144.44.111.75,1,new
scotland travel,144.44.111.75,2,new
survive island,144.44.111.75,2,new
survive desert island,144.44.111.75,3,new
surviving desert island,144.44.111.75,3,new
surviving island,144.44.111.75,2,new
making fire,144.44.111.75,2,new
fishing,144.44.111.75,1,new
cooking,144.44.111.75,1,new
cooking fish,144.44.111.75,2,specialisation
harry potter,144.44.111.75,2,new
berlin,247.149.78.161,1,new
the tempest,247.149.78.161,2,new
the tempest shakespeare,247.149.78.161,3,specialisation
mcbeth shakespeare,247.149.78.161,2,new
henry iv shakespeare,247.149.78.161,3,new
henry v shakespeare,247.149.78.161,3,new
hamlet shakespeare,247.149.78.161,2,new
titus andronicus shakespeare,247.149.78.161,3,new
berlin,72.66.140.71,1,new
surviving,72.66.140.71,1,new
surviving desert island,72.66.140.71,3,specialisation
survival guide,72.66.140.71,2,new
guide,72.66.140.71,1,generalisation
cooking outdoors,72.66.140.71,2,new
cooking survival,72.66.140.71,2,new
snooker,72.66.140.71,1,new
ronnie sullivan,72.66.140.71,2,new
ronnie o sullivan,72.66.140.71,3,new
"""ronnie o sullivan""",72.66.140.71,3,specialisation
"""running""",72.66.140.71,1,new
"""running"", ""ronnie""",72.66.140.71,2,specialisation
snooker,72.66.140.71,1,new
"creator:""ronnie o'sullivan""",72.66.140.71,2,new
survival guide,72.66.140.71,2,new
survival cooking,72.66.140.71,2,new
snooker,72.66.140.71,1,new
wolf,72.66.140.71,1,new
london,132.154.227.81,1,new
"creator:""fyodor dostoevsky""",132.154.227.81,2,new
"tag:""19th century""",132.154.227.81,2,new
survive desert island,132.154.227.81,3,new
how to survive desert island,132.154.227.81,5,specialisation
how to build a boat,132.154.227.81,5,new
knitting manual,132.154.227.81,2,new
berlin,31.160.21.253,1,new
überleben,31.160.21.253,1,new
oboe,31.160.21.253,1,new
blabla,31.160.21.253,1,new
berlin,151.35.121.151,1,new
berlin,151.35.121.151,1,specialisation
survival,151.35.121.151,1,new
survival island,151.35.121.151,2,specialisation
time,151.35.121.151,1,new
synthesizer,151.35.121.151,1,new
robinson cru,151.35.121.151,2,new
robinson crusoe,151.35.121.151,2,specialisation
berlin,3.50.41.251,1,new
terry goodkind,3.50.41.251,2,new
"tag:""paperback""",3.50.41.251,1,new
terry goodkind,3.50.41.251,2,new
гра престолiв,3.50.41.251,2,new
eragon,3.50.41.251,1,new
game of thrones russian,3.50.41.251,4,new
don juan tenorio,3.50.41.251,3,new
the third kingdom terry goodkind,3.50.41.251,5,new
omen machine terry goodkind,3.50.41.251,4,new
el romanticismo,3.50.41.251,2,new
el romanticismo época,3.50.41.251,3,specialisation
romanticismo,3.50.41.251,1,generalisation
romanticismo literature science,3.50.41.251,3,specialisation
surviving desert island,3.50.41.251,3,new
surviving  island,3.50.41.251,2,new
surviving  tips,3.50.41.251,2,new
how to make fire,3.50.41.251,4,new
surviving toolkid,3.50.41.251,2,new
leben auf einer einsamen insel,3.50.41.251,5,new
collecting berries,3.50.41.251,2,new
surviving wilderness,3.50.41.251,2,new
calligraphy,3.50.41.251,1,new
surviving island,3.50.41.251,2,new
desert island,3.50.41.251,2,new
desert island popular,3.50.41.251,3,specialisation
wilderness,3.50.41.251,1,new
wilderness surviving tips,3.50.41.251,3,specialisation
london,225.139.8.170,1,new
skandinavia,225.139.8.170,1,new
skandinavia,225.139.8.170,1,specialisation
norway,225.139.8.170,1,new
the hobbit,225.139.8.170,2,new
surviving on desert island,225.139.8.170,4,new
desert island,225.139.8.170,2,generalisation
build tree house,225.139.8.170,3,new
build tree house,225.139.8.170,3,specialisation
tree house,225.139.8.170,2,generalisation
build tree house,225.139.8.170,3,specialisation
how to make fire,225.139.8.170,4,new
build boat,225.139.8.170,2,new
cakes,225.139.8.170,1,new
plants,225.139.8.170,1,new
tropical plants,225.139.8.170,2,specialisation
stephen king,225.139.8.170,2,new
london,82.7.3.7,1,new
london,82.7.3.7,1,specialisation
survival iland,82.7.3.7,2,new
robinson crusoe,82.7.3.7,2,new
c++,82.7.3.7,1,new
knitting,82.7.3.7,1,new
poe,82.7.3.7,1,new
london,166.220.29.174,1,new
shannon,166.220.29.174,1,new
truffle,166.220.29.174,1,new
surviving on island,166.220.29.174,3,new
surviving on desert island,166.220.29.174,4,new
c++,166.220.29.174,1,new
afraid of c++,166.220.29.174,3,specialisation
wernher von braun,166.220.29.174,3,new
berlin,126.172.115.193,1,new
berlin art,126.172.115.193,2,specialisation
berlin architecture,126.172.115.193,2,new
surviving on an island,126.172.115.193,4,new
surviving on a desert island,126.172.115.193,5,new
surviving  desert island,126.172.115.193,3,new
survive desert island,126.172.115.193,3,new
building a house,126.172.115.193,3,new
architecture,126.172.115.193,1,new
art,126.172.115.193,1,new
modern art,126.172.115.193,2,specialisation
modern art fashion,126.172.115.193,3,specialisation
arnaud pyvka,126.172.115.193,2,new
david,126.172.115.193,1,new
berlin,106.113.81.190,1,new
jane austen,106.113.81.190,2,new
"creator:""jane austen""",106.113.81.190,2,specialisation
harry potter,106.113.81.190,2,new
"creator:""j.k. rowling""",106.113.81.190,2,new
"creator:""j.k. rowling"" bos set",106.113.81.190,4,specialisation
"creator:""j.k. rowling"" box set",106.113.81.190,4,new
untranslatable,106.113.81.190,1,new
untranslatable illustrated,106.113.81.190,2,specialisation
frances sanders,106.113.81.190,2,new
"crator:""ella frances sanders""",106.113.81.190,3,specialisation
"creator:""ella frances sanders""",106.113.81.190,3,new
penguin,106.113.81.190,1,new
survive island,106.113.81.190,2,new
survival guide island,106.113.81.190,3,new
survival guide desert island,106.113.81.190,4,new
russian language,106.113.81.190,2,new
drama theory,106.113.81.190,2,new
dramaturgie,106.113.81.190,1,new
drama theory,106.113.81.190,2,new
harry potter,106.113.81.190,2,new
war and piece,106.113.81.190,3,new
war and peace,106.113.81.190,3,new
tolstoy war peace,106.113.81.190,3,new
"creator:""leo tolstoy""",106.113.81.190,2,new
berlin,81.1.59.17,1,new
surviving on a desert island,81.1.59.17,5,new
surviv* desert island,81.1.59.17,3,new
surviv* desert ,81.1.59.17,2,generalisation
3d modelling,81.1.59.17,2,new
milan kundera,81.1.59.17,2,new
fun ,81.1.59.17,1,new
book,81.1.59.17,1,new
berlin,81.163.106.36,1,new
"desert, surviving",81.163.106.36,2,new
skill handcrafting,81.163.106.36,2,new
"skill, handcrafting",81.163.106.36,2,new
"survive, handcrafting",81.163.106.36,2,new
carving,81.163.106.36,1,new
surviving,81.163.106.36,1,new
creative,81.163.106.36,1,new
merle,81.163.106.36,1,new
dream,81.163.106.36,1,new
ludic dream,81.163.106.36,2,specialisation
dream,81.163.106.36,1,generalisation
space,81.163.106.36,1,new
ludic dreams,81.163.106.36,2,new
ludic dreams,81.163.106.36,2,specialisation
portrait,108.243.58.47,1,new
london,108.243.58.47,1,new
david hatcher childress,108.243.58.47,3,new
gordon ramsay,108.243.58.47,2,new
"reviewer:""a1gd0hmsz8a8lq""",108.243.58.47,1,new
war of the roses,108.243.58.47,4,new
surviving desert,108.243.58.47,2,new
survival guide desert,108.243.58.47,3,new
survival guide island,108.243.58.47,3,new
survival island,108.243.58.47,2,new
london,14.146.57.234,1,new
"creator:""nancy e. aiken""",14.146.57.234,3,new
romeo and juliet,14.146.57.234,3,new
romeo and juliet gottfried keller,14.146.57.234,5,specialisation
oxford book of death,14.146.57.234,4,new
ski,14.146.57.234,1,new
london,245.39.77.188,1,new
black serie,245.39.77.188,2,new
harry potter,245.39.77.188,2,new
harry potter,245.39.77.188,2,specialisation
lord of the rings,245.39.77.188,4,new
star trek,245.39.77.188,2,new
skyrim,245.39.77.188,1,new
minecraft,245.39.77.188,1,new
forrest gump,245.39.77.188,2,new
eragon,245.39.77.188,1,new
forrest gump,245.39.77.188,2,new
eragon,245.39.77.188,1,new
skyrim,245.39.77.188,1,new
skyrim,245.39.77.188,1,specialisation
harry potter,245.39.77.188,2,new
harry potter (1-7),245.39.77.188,3,specialisation
lord of the rings,245.39.77.188,4,new
forrest gump,245.39.77.188,2,new
eragon,245.39.77.188,1,new
harry potter,245.39.77.188,2,new
guitar,245.39.77.188,1,new
forrest gump,245.39.77.188,2,new
guitar,245.39.77.188,1,new
guitar rock,245.39.77.188,2,specialisation
lord of the rings,245.39.77.188,4,new
london,89.157.103.3,1,new
surviving,89.157.103.3,1,new
brockhaus,89.157.103.3,1,new
survival,89.157.103.3,1,new
crichton,89.157.103.3,1,new
"crichton, michael",89.157.103.3,2,specialisation
"crichton, michael",89.157.103.3,2,specialisation
spanish,89.157.103.3,1,new
string,89.157.103.3,1,new
the origin,89.157.103.3,2,new
the origin,89.157.103.3,2,specialisation
the origin darwin,89.157.103.3,3,specialisation
darwin,89.157.103.3,1,generalisation
harry potter,89.157.103.3,2,new
harry potter,89.157.103.3,2,specialisation
tolkien,89.157.103.3,1,new
michael crichton,89.157.103.3,2,new
stephan jay gould,89.157.103.3,3,new
london,211.225.1.225,1,new
tod strasser,211.225.1.225,2,new
fantasy,211.225.1.225,1,new
a song of ice and fire,211.225.1.225,6,new
a song of ice and fire book 1,211.225.1.225,8,specialisation
the totilla curtain,211.225.1.225,3,new
the totilla curtan,211.225.1.225,3,new
 tortilla curtan,211.225.1.225,2,new
tortilla curtain,211.225.1.225,2,new
"creator:""t. c. boyle""",211.225.1.225,3,new
trudi canavan,211.225.1.225,2,new
sonea,211.225.1.225,1,new
"creator:""trudi canavan""",211.225.1.225,2,new
"creator:""clare""",211.225.1.225,1,new
city of glass,211.225.1.225,3,new
information behavior,211.225.1.225,2,new
information behavior library sience,211.225.1.225,4,specialisation
information behavior library sience models,211.225.1.225,5,specialisation
information behavior library and information sience ,211.225.1.225,6,new
information behavior library and information sience bates,211.225.1.225,7,specialisation
"information behavior library and information sience ceator: ""bates""",211.225.1.225,8,new
encyclopedia of library and information sience,211.225.1.225,6,new
 library and information sience,211.225.1.225,4,generalisation
library and information sience: informations behaveior,211.225.1.225,6,new
library and information sience: information behaveior,211.225.1.225,6,new
pride and prejudice,211.225.1.225,3,new
pride and prejudice,211.225.1.225,3,specialisation
"pride and prejudice creator: ""jane austen""",211.225.1.225,6,specialisation
surviving on a desert island,211.225.1.225,5,new
surviving in a desert ,211.225.1.225,4,new
school book,211.225.1.225,2,new
how to build a tree house,211.225.1.225,6,new
 build a tree house,211.225.1.225,4,generalisation
instruction to build a tree house,211.225.1.225,6,specialisation
basketball,211.225.1.225,1,new
fun,211.225.1.225,1,new
fairytale,211.225.1.225,1,new
berlin,123.168.78.86,1,new
sociiology,123.168.78.86,1,new
sociology,123.168.78.86,1,new
germany,123.168.78.86,1,new
travel  lonely island,123.168.78.86,3,new
robinson crusoe,123.168.78.86,2,new
surviving,123.168.78.86,1,new
history,123.168.78.86,1,new
berlin art,123.168.78.86,2,new
philosophy,123.168.78.86,1,new
building,123.168.78.86,1,new
joyce,123.168.78.86,1,new
literature,123.168.78.86,1,new
berlin,198.42.64.205,1,new
clive barker hellraiser,198.42.64.205,3,new
clive barker night breed,198.42.64.205,4,new
eva illouz,198.42.64.205,2,new
"creator:""eva illouz""",198.42.64.205,2,specialisation
simon marsden,198.42.64.205,2,new
john berger ,198.42.64.205,2,new
john berger ways of seeing,198.42.64.205,5,specialisation
the drop,198.42.64.205,2,new
dylan thomas,198.42.64.205,2,new
das haus,198.42.64.205,2,new
pontianowska,198.42.64.205,1,new
survival guide,198.42.64.205,2,new
"tag:""survival""",198.42.64.205,1,new
reiki,198.42.64.205,1,new
tai chi,198.42.64.205,2,new
eva illouz ,198.42.64.205,2,new
"tag:""read""",198.42.64.205,1,new
thomas wolfe look homward angel,198.42.64.205,5,new
thomas wolfe look homeward angel,198.42.64.205,5,new
john peel,198.42.64.205,2,new
london,232.223.82.56,1,new
"creator:""douglas s. clark""",232.223.82.56,3,new
ottolinka,232.223.82.56,1,new
vegetarian,232.223.82.56,1,new
vegetarian indian,232.223.82.56,2,specialisation
indian,232.223.82.56,1,generalisation
surviving,232.223.82.56,1,new
surviving island,232.223.82.56,2,specialisation
orwell,232.223.82.56,1,new
yoga,232.223.82.56,1,new
philosopy,232.223.82.56,1,new
spinoza,232.223.82.56,1,new
loriot,232.223.82.56,1,new
"""london""",33.198.163.225,1,new
"""survive""",33.198.163.225,1,new
"""duration""",33.198.163.225,1,new
"""survive""",33.198.163.225,1,new
"""surviv*""",33.198.163.225,1,new
"""survival""",33.198.163.225,1,new
"""start fire""",33.198.163.225,2,new
"""sleeping""",33.198.163.225,1,new
"""rock climbing""",33.198.163.225,2,new
"""manga""",33.198.163.225,1,new
"""semantic web rdf""",33.198.163.225,3,new
london,77.128.125.39,1,new
survival,77.128.125.39,1,new
survival,77.128.125.39,1,specialisation
survival island,77.128.125.39,2,specialisation
desert,77.128.125.39,1,new
adorno,77.128.125.39,1,new
philosophy germany,77.128.125.39,2,new
raf,77.128.125.39,1,new
cold war,77.128.125.39,2,new
swim,77.128.125.39,1,new
swimming,77.128.125.39,1,specialisation
swimmer,77.128.125.39,1,new
language,77.128.125.39,1,new
art,77.128.125.39,1,new
modern art,77.128.125.39,2,specialisation
artists,77.128.125.39,1,new
architecture,77.128.125.39,1,new
modern architecture,77.128.125.39,2,specialisation
architektur berlin,77.128.125.39,2,new
ulrike meinhof,77.128.125.39,2,new
ulrike meinhof,77.128.125.39,2,specialisation
berlin,69.120.68.9,1,new
surviving on a desert island,69.120.68.9,5,new
"tag:""survival""",69.120.68.9,1,new
survival,69.120.68.9,1,generalisation
survival island,69.120.68.9,2,specialisation
surviving on a desert island,69.120.68.9,5,new
building cabins,69.120.68.9,2,new
*,69.120.68.9,1,new
latin america,69.120.68.9,2,new
"creator:""isabel allende""",69.120.68.9,2,new
*,69.120.68.9,1,new
new york,69.120.68.9,2,new
*,69.120.68.9,1,new
travel,69.120.68.9,1,new
world travel,69.120.68.9,2,specialisation
*,69.120.68.9,1,new
cooking,69.120.68.9,1,new
chile,69.120.68.9,1,new
traveling ,69.120.68.9,1,new
london,153.246.194.165,1,new
survival nature,153.246.194.165,2,new
survival island,153.246.194.165,2,new
survival nature,153.246.194.165,2,new
london,10.39.76.214,1,new
surviv* desert,10.39.76.214,2,new
star* map*,10.39.76.214,2,new
guide sky,10.39.76.214,2,new
italian,10.39.76.214,1,new
bolano,10.39.76.214,1,new
sky guide naked-eye,10.39.76.214,3,new
pjöngjang,10.39.76.214,1,new
pjöngjang,10.39.76.214,1,specialisation
deslisle,10.39.76.214,1,new
london,193.164.163.101,1,new
bible,193.164.163.101,1,new
holy bible,193.164.163.101,2,specialisation
holy bible,193.164.163.101,2,specialisation
"""the holy bible""",193.164.163.101,3,specialisation
"""survive""",193.164.163.101,1,new
"""rip""",193.164.163.101,1,new
"""fishing""",193.164.163.101,1,new
"""how to fish""",193.164.163.101,3,new
"""fishing""",193.164.163.101,1,new
"""survival guide""",193.164.163.101,2,new
"""survival guide outdoor""",193.164.163.101,3,new
"""comic""",193.164.163.101,1,new
"""bear grylls""",193.164.163.101,2,new
"""walking dead""",193.164.163.101,2,new
"""zwangsarbeit""",193.164.163.101,1,new
"""forced foreign labor""",193.164.163.101,3,new
"""enforced foreign labor""",193.164.163.101,3,new
"""lager""",193.164.163.101,1,new
london,60.135.208.61,1,new
gender,60.135.208.61,1,new
"""socalist""",60.135.208.61,1,new
"""socalist""",60.135.208.61,1,specialisation
"""socalist""",60.135.208.61,1,specialisation
judith butler,60.135.208.61,2,new
kurdistan,60.135.208.61,1,new
information,60.135.208.61,1,new
london,63.234.209.116,1,new
survival bok,63.234.209.116,2,new
survival book,63.234.209.116,2,new
survival desert island,63.234.209.116,3,new
dostojewski,63.234.209.116,1,new
dostojewski,63.234.209.116,1,specialisation
e e cummings,63.234.209.116,3,new
poems,63.234.209.116,1,new
poetry,63.234.209.116,1,new
great poets,63.234.209.116,2,new
dostojewski,63.234.209.116,1,new
back to earth,63.234.209.116,3,new
canada,63.234.209.116,1,new
canada,63.234.209.116,1,specialisation
dickins,63.234.209.116,1,new
dickins emily,63.234.209.116,2,specialisation
dickinson emily,63.234.209.116,2,new
london,195.50.208.233,1,new
desert island survive,195.50.208.233,3,new
island survive,195.50.208.233,2,generalisation
island surviving,195.50.208.233,2,new
boulder,195.50.208.233,1,new
tolkien,195.50.208.233,1,new
london ,94.65.165.191,1,new
survive island,94.65.165.191,2,new
survive wilderness,94.65.165.191,2,new
learn arabic ,94.65.165.191,2,new
vinyl ,94.65.165.191,1,new
* ,94.65.165.191,1,new
comic ,94.65.165.191,1,new
london,150.81.74.191,1,new
ubuntu,150.81.74.191,1,new
ubuntu,150.81.74.191,1,specialisation
survival,150.81.74.191,1,new
survival nature,150.81.74.191,2,specialisation
überleben,150.81.74.191,1,new
erste hilfe,150.81.74.191,2,new
ubuntu,150.81.74.191,1,new
ubuntu,150.81.74.191,1,specialisation
ubuntu,150.81.74.191,1,specialisation
berlin,187.251.92.94,1,new
guild wars,187.251.92.94,2,new
sea of sorrows,187.251.92.94,3,new
kafka,187.251.92.94,1,new
blue,187.251.92.94,1,new
byzantine ,187.251.92.94,1,new
survive,187.251.92.94,1,new
survive island ,187.251.92.94,2,specialisation
"survive, island",187.251.92.94,2,new
survive,187.251.92.94,1,generalisation
survive island desert,187.251.92.94,3,specialisation
surviving guide island desert,187.251.92.94,4,new
"reviewer:""ait5qvhy5qg6w""",187.251.92.94,1,new
"reviewer:""ait5qvhy5qg6w""",187.251.92.94,1,specialisation
"creator:""gregory j. davenport""",187.251.92.94,3,new
"creator:""gregory j. davenport""",187.251.92.94,3,specialisation
topic:survival skills,187.251.92.94,2,new
bible,187.251.92.94,1,new
desert,187.251.92.94,1,new
"publisher:""desert pubns""",187.251.92.94,2,specialisation
do-it-yourself,187.251.92.94,1,new
simplify,187.251.92.94,1,new
drawing,187.251.92.94,1,new
berlin,176.15.147.77,1,new
surviving desert island,176.15.147.77,3,new
surviving on desert island,176.15.147.77,4,new
how to survive a desert island,176.15.147.77,6,new
how to read time with sun,176.15.147.77,6,new
sheltering sky,176.15.147.77,2,new
highly recommended,176.15.147.77,2,new
london,179.222.35.81,1,new
morocco,179.222.35.81,1,new
morocco travel guide,179.222.35.81,3,specialisation
survival guide,179.222.35.81,2,new
sas survival guide,179.222.35.81,3,specialisation
survival guide,179.222.35.81,2,generalisation
french,179.222.35.81,1,new
arabic,179.222.35.81,1,new
arabic language course,179.222.35.81,3,specialisation
tea,179.222.35.81,1,new
berlin,248.136.159.243,1,new
berlin,167.196.15.208,1,new
emily shore,167.196.15.208,2,new
emily shore diary,167.196.15.208,3,specialisation
emily shore journal,167.196.15.208,3,new
anne frank,167.196.15.208,2,new
python,167.196.15.208,1,new
survive desert island,167.196.15.208,3,new
survival desert island,167.196.15.208,3,new
find water,167.196.15.208,2,new
philosophy of language,167.196.15.208,3,new
home,167.196.15.208,1,new
berlin,12.187.144.220,1,new
surviving desert island,12.187.144.220,3,new
surviving on desert island,12.187.144.220,4,new
rats,12.187.144.220,1,new
rats dna,12.187.144.220,2,specialisation
volleyball,12.187.144.220,1,new
nora roberts,12.187.144.220,2,new
nora roberts,12.187.144.220,2,specialisation
berlin,234.91.190.184,1,new
plath,234.91.190.184,1,new
desert island,234.91.190.184,2,new
robinson cruseo,234.91.190.184,2,new
robinson crusoe,234.91.190.184,2,new
cook outside,234.91.190.184,2,new
learn new laguage,234.91.190.184,3,new
learn new language,234.91.190.184,3,new
berlin,242.48.244.98,1,new
survival guide,242.48.244.98,2,new
survival guide outdoor,242.48.244.98,3,specialisation
politik,242.48.244.98,1,new
tolstoi,242.48.244.98,1,new
tolstoi,242.48.244.98,1,specialisation
fun,242.48.244.98,1,new
terry pratchett,242.48.244.98,2,new
physics,242.48.244.98,1,new
bruno bauer,242.48.244.98,2,new
godwin,242.48.244.98,1,new
william godwin,242.48.244.98,2,specialisation
berlin,195.223.178.157,1,new
berlin,195.223.178.157,1,specialisation
surviving on a desert osland,195.223.178.157,5,new
surviving on a desert island,195.223.178.157,5,new
 desert island,195.223.178.157,2,generalisation
 surviving desert island,195.223.178.157,3,specialisation
surviving ,195.223.178.157,1,generalisation
"""desert island""",195.223.178.157,2,new
"surviving ""desert island""",195.223.178.157,3,specialisation
fire,195.223.178.157,1,new
fishung,195.223.178.157,1,new
fishing,195.223.178.157,1,new
outdoor,195.223.178.157,1,new
outdoor,195.223.178.157,1,specialisation
vegan,195.223.178.157,1,new
island,195.223.178.157,1,new
fairy tales,195.223.178.157,2,new
whales,195.223.178.157,1,new
penny laurie,195.223.178.157,2,new
laurie penny,195.223.178.157,2,new
canada,195.223.178.157,1,new
dürrenmatt,195.223.178.157,1,new
vegan,195.223.178.157,1,new
moby dick,195.223.178.157,2,new
angela davis,195.223.178.157,2,new
"tag:""social change""",195.223.178.157,2,new
globalization,195.223.178.157,1,new
emma goldmann,195.223.178.157,2,new
"tag:""women's biography""",195.223.178.157,2,new
"tag:""women's studies""",195.223.178.157,2,new
work and travel,195.223.178.157,3,new
brecht,195.223.178.157,1,new
usa ,195.223.178.157,1,new
usa travel,195.223.178.157,2,specialisation
matt,1,new
195.223.178.157,vegan,1,new
195.223.178.157,moby dick,2,new
195.223.178.157,angela davis,2,new
195.223.178.157,"tag:""social change""",2,new
195.223.178.157,globalization,1,new
195.223.178.157,emma goldmann,2,new
195.223.178.157,"tag:""women's biography""",2,new
195.223.178.157,"tag:""women's studies""",2,parallel
195.223.178.157,work and travel,3,new
195.223.178.157,brecht,1,new
195.223.178.157,usa ,1,new
195.223.178.157,usa travel,2,specialisation
